{
    "modules": [       
        {
            "id": "wp_dynamicContentSpots_j3",
            "contributions": [
                {
                    "type": "dyn-cs",
                    "sub-contributions": [
                        {
                            "type": "markup",
                            "ref-id": "jacobacci20_footer",
                            "uris": [
                                {
                                    "value": "res:/Jacobacci20Themes/themes/html/dynamicSpots/j3Footer.jsp"
                                }
                            ]
                        },{
                            "type": "markup",
                            "ref-id": "jacobacci20_crumbTrail",
                            "uris": [
                                {
                                    "value": "res:/Jacobacci20Themes/themes/html/dynamicSpots/crumbTrail.jsp?rootClass=wpthemeCrumbTrail&amp;startLevel=2"
                                }
                            ]
                        },{
                            "type": "markup",
                            "ref-id": "jacobacci20_topNav",
                            "uris": [
                                {
                                    "value": "res:/Jacobacci20Themes/themes/html/dynamicSpots/navigation.jsp?rootClass=wpthemeHeaderNav&amp;rootLabel=Portal&amp;startLevel=0&amp;primeRoot=true"
                                }
                            ]
                        },{
                            "type": "markup",
                            "ref-id": "jacobacci20_primaryNav",
                            "uris": [
                                {
                                    "value": "mvc:res:/Jacobacci20Themes/themes/html/dynamicSpots/navigation.jsp?rootClass=wpthemePrimaryNav%2520wpthemeLeft&amp;rootLabel=Portal%2520Application&amp;startLevel=1,smartphone@,tablet@"
                                }
                            ]
                        },{
                            "type": "markup",
                            "ref-id": "jacobacci20_secondaryNav",
                            "uris": [
                                {
                                    "value": "mvc:res:/Jacobacci20Themes/themes/html/dynamicSpots/navigation.jsp?rootClass=wpthemeSecondaryNav&amp;startLevel=2&amp;rootLabel=Application&amp;levelsDisplayed=2,smartphone@,tablet@"
                                }
                            ]
                        },{
                            "type": "markup",
                            "ref-id": "jacobacci20_sideNav",
                            "uris": [
                                {
                                    "value": "mvc:res:/Jacobacci20Themes/themes/html/dynamicSpots/sideNavigation.jsp?startLevel=2,smartphone@,tablet@"
                                }
                            ]
                        },{
                            "type": "markup",
                            "ref-id": "jacobacci20_mobileNav",
                            "uris": [
                                {
                                    "value": "mvc:smartphone/tablet@res:/Jacobacci20Themes/themes/html/dynamicSpots/mobileNavigation.jsp"
                                }
                            ]
                        },{
                            "type": "markup",
                            "ref-id": "jacobacci20_commonActions",
                            "uris": [
                                {
                                    "value": "res:/Jacobacci20Themes/themes/html/dynamicSpots/commonActions.jsp"
                                }
                            ]
                        },{
                            "type": "markup",
                            "ref-id": "jacobacci20_layout",
                            "uris": [
                                {
                                    "value": "lm:template"
                                }
                            ]
                        },{
                            "type": "markup",
                            "ref-id": "jacobacci20_head",
                            "uris": [
                                {
                                    "value": "res:/Jacobacci20Themes/themes/html/dynamicSpots/head.jsp"
                                }
                            ]
                        },{
                            "type": "markup",
                            "ref-id": "jacobacci20_status",
                            "uris": [
                                {
                                    "value": "mc:wp_status_bar@res:/Jacobacci20Themes/themes/html/dynamicSpots/status.jsp"
                                }
                            ]
                        },{
                            "type": "markup",
                            "ref-id": "85theme_toolbar",
                            "uris": [
                                {
                                    "value": "mvc:dyn-cs:id:85toolbar,smartphone@,tablet@"
                                }
                            ]
                        }
                    ]
                }
            ]
        }
    ]
}